{
  "project_info": {
    "project_number": "897736385456",
    "project_id": "aprovechalo-ae514",
    "storage_bucket": "aprovechalo-ae514.appspot.com"
  },
  "client": [
    {
      "client_info": {
        "mobilesdk_app_id": "1:897736385456:android:b5d508400c2da17824ec75",
        "android_client_info": {
          "package_name": "net.sinticbolivia.aprovechalo"
        }
      },
      "oauth_client": [
        {
          "client_id": "897736385456-ec5akvpdcrka47bnes2t3r7tk2rv7rgc.apps.googleusercontent.com",
          "client_type": 3
        }
      ],
      "api_key": [
        {
          "current_key": "AIzaSyCk5hUGFv_zOfJvcj245IBjIjKjxa3BSiE"
        }
      ],
      "services": {
        "appinvite_service": {
          "other_platform_oauth_client": [
            {
              "client_id": "897736385456-ec5akvpdcrka47bnes2t3r7tk2rv7rgc.apps.googleusercontent.com",
              "client_type": 3
            }
          ]
        }
      }
    }
  ],
  "configuration_version": "1"
}